%YAML 1.1
%TAG !u! tag:unity3d.com,2011:
--- !u!1045 &1
EditorBuildSettings:
  m_ObjectHideFlags: 0
  serializedVersion: 2
  m_Scenes:
  - enabled: 1
    path: Assets/Level1.unity
    guid: 61d9df1cc49bcc04ba313e47e2c3d2ea
  - enabled: 1
    path: Assets/Level2.unity
    guid: 4e13a2de02df33d4f92770e4d99d1c8b
